<svg width="14" height="14" viewBox="0 0 14 14" fill="none" xmlns="http://www.w3.org/2000/svg">
<path d="M7 0C3.14047 0 0 3.14047 0 7C0 10.8595 3.14047 14 7 14C10.8595 14 14 10.8595 14 7C14 3.14047 10.8595 0 7 0ZM7 11.0836C6.67807 11.0836 6.41638 10.8228 6.41638 10.5C6.41638 10.1781 6.67722 9.91638 7 9.91638C7.32193 9.91638 7.58362 10.1772 7.58362 10.5C7.58362 10.8219 7.32193 11.0836 7 11.0836ZM7.58362 8.16638C7.58362 8.48917 7.32193 8.75 7 8.75C6.67807 8.75 6.41638 8.48831 6.41638 8.16638V3.5C6.41638 3.17807 6.67807 2.91638 7 2.91638C7.32193 2.91638 7.58362 3.17807 7.58362 3.5V8.16638Z" fill="#F4984D"/>
</svg>
