<svg width="26" height="26" viewBox="0 0 26 26" fill="none" xmlns="http://www.w3.org/2000/svg">
<path d="M13.0013 24.5434L18.152 23.2427C21.0919 20.8014 22.9646 17.1192 22.9646 12.9992C22.9646 6.6442 18.5105 1.32959 12.5538 0.00669098C5.58071 0.241859 0 5.96876 0 12.9991C0 16.6103 1.47266 19.8772 3.84983 22.233L13.0013 24.5434Z" fill="#CBE2FF"/>
<path d="M22.6949 13C22.6949 17.2613 20.6443 21.0433 17.4763 23.4142L22.1498 22.234C24.5271 19.8782 26 16.6113 26 13C26 5.82029 20.1797 0 13 0C12.4402 0 11.8886 0.0354453 11.3474 0.104102C17.7468 0.915992 22.6949 6.38016 22.6949 13Z" fill="#BED8FB"/>
<path d="M16.2309 4.92335C16.2309 4.25938 15.6926 3.72115 15.0287 3.72115H10.8858C9.35778 3.72115 8.11902 4.95991 8.11902 6.48797V9.55988H17.8796V6.53154C17.8796 5.86758 17.3414 5.32934 16.6774 5.32934H16.6369C16.4127 5.32934 16.2309 5.1476 16.2309 4.92335Z" fill="#365E7D"/>
<path d="M16.6773 5.32934H16.6368C16.4126 5.32934 16.2308 5.14754 16.2308 4.92329C16.2308 4.25933 15.6925 3.7211 15.0286 3.7211H14.5743V9.55983H17.8795V6.53149C17.8795 5.86762 17.3413 5.32934 16.6773 5.32934Z" fill="#2B4D66"/>
<path d="M21.5843 18.9087C21.2664 18.5947 20.8733 18.3519 20.427 18.2107L16.8778 17.087L13.0008 16.9507L9.1221 17.087L5.57295 18.2107C4.37228 18.5908 3.55627 19.7051 3.55627 20.9645V21.9341C5.83072 24.3375 9.01277 25.8731 12.5538 25.9925C16.5213 25.1113 19.8221 22.4594 21.5843 18.9087Z" fill="#4A80AA"/>
<path d="M22.4436 21.934V20.9644C22.4436 20.0739 22.0353 19.2564 21.3718 18.7192C19.4873 22.5596 15.7645 25.3344 11.3503 25.8955C11.8831 25.963 12.4258 25.999 12.9767 25.9999C13.506 25.9991 14.0282 25.9685 14.5419 25.9094C17.6412 25.5432 20.4064 24.0867 22.4436 21.934Z" fill="#407093"/>
<path d="M13.2944 25.8054C14.0809 24.2438 16.1291 19.8098 15.545 17.0401L13.0008 16.0499L10.4542 17.0401C9.85219 19.8953 12.0473 24.5191 12.774 25.9416C12.9488 25.8996 13.1223 25.8542 13.2944 25.8054Z" fill="#E4F6FF"/>
<path d="M14.635 24.5674L13.6034 20.5091H12.3965L11.3674 24.5563L12.6399 25.973C12.9629 25.899 13.2815 25.8132 13.5951 25.7162L14.635 24.5674Z" fill="#E28086"/>
<path d="M12.6597 25.9952C12.7651 25.9979 12.8707 25.9998 12.9767 26C13.0993 25.9998 13.2215 25.9977 13.3434 25.9943L13.9988 25.2702C13.483 25.4511 12.9522 25.6005 12.4089 25.716L12.6597 25.9952Z" fill="#DD636E"/>
<path d="M15.1723 16.6655V14.377H10.8264V16.6655C10.8264 17.8656 12.9993 19.1765 12.9993 19.1765C12.9993 19.1765 15.1723 17.8656 15.1723 16.6655Z" fill="#FFDDCE"/>
<path d="M17.8796 9.15678H17.0489C16.5869 9.15678 16.2124 8.78227 16.2124 8.32026V7.86247C16.2124 7.26066 15.6236 6.83516 15.0522 7.02402C13.7195 7.46449 12.2806 7.4646 10.9479 7.02432L10.9463 7.02381C10.3749 6.83506 9.78622 7.26056 9.78622 7.86231V8.32031C9.78622 8.78232 9.41171 9.15683 8.9497 9.15683H8.11902V10.5248C8.11902 10.8743 8.40238 11.1577 8.75196 11.1577C8.86225 11.1577 8.95198 11.2441 8.95894 11.3542C9.09239 13.4701 10.8498 15.1452 12.9994 15.1452C15.1489 15.1452 16.9063 13.4701 17.0398 11.3542C17.0467 11.2441 17.1364 11.1577 17.2467 11.1577C17.5963 11.1577 17.8797 10.8744 17.8797 10.5248V9.15678H17.8796Z" fill="#FFDDCE"/>
<path d="M17.049 9.15678C16.587 9.15678 16.2124 8.78227 16.2124 8.32026V7.86247C16.2124 7.26066 15.6236 6.83516 15.0522 7.02402C14.8944 7.07617 14.735 7.12167 14.5745 7.16148V11.6796C14.5523 13.1496 13.7468 14.429 12.5573 15.1204C12.7025 15.1362 12.8499 15.1451 12.9994 15.1451C15.1489 15.1451 16.9063 13.47 17.0398 11.3541C17.0467 11.244 17.1365 11.1576 17.2468 11.1576C17.5963 11.1576 17.8797 10.8743 17.8797 10.5247V9.15673H17.049V9.15678Z" fill="#FFCBBE"/>
<path d="M10.8262 16.0499L9.12207 17.4346L10.9092 19.6442C11.1266 19.8559 11.4687 19.8689 11.7016 19.6744L13.0455 18.5517L10.8262 16.0499Z" fill="#F4FBFF"/>
<path d="M15.1729 16.0499L13.0455 18.5517L14.3087 19.6318C14.5401 19.8296 14.8839 19.8197 15.1034 19.6088L16.8777 17.4346L15.1729 16.0499Z" fill="#F4FBFF"/>
<path d="M10.8263 16.0499L8.32504 17.2788C8.13461 17.3723 8.05813 17.604 8.15538 17.7925L8.64542 18.7426C8.77242 18.9888 8.72555 19.2888 8.52953 19.4846C8.42863 19.5853 8.31935 19.6943 8.22464 19.7889C8.05514 19.9581 7.99425 20.2081 8.0689 20.4357C8.66055 22.2393 11.5081 24.9973 12.5857 25.9951C12.6582 25.997 12.7308 25.9984 12.8035 25.9992C12.0221 24.4791 9.25281 18.7042 10.8263 16.0499Z" fill="#365E7D"/>
<path d="M17.4698 19.4845C17.2737 19.2888 17.2269 18.9888 17.3539 18.7426L17.8439 17.7925C17.9412 17.6039 17.8647 17.3723 17.6743 17.2787L15.173 16.0499C16.7461 18.7035 13.9787 24.476 13.1964 25.998C13.2699 25.9967 13.3433 25.9949 13.4165 25.9924C14.4964 24.9923 17.3393 22.2377 17.9304 20.4357C18.005 20.2081 17.9442 19.9581 17.7746 19.7889C17.6799 19.6943 17.5707 19.5852 17.4698 19.4845Z" fill="#365E7D"/>
<path d="M13.0457 18.5518L11.7223 19.657L12.3966 20.5091H13.6035L14.2778 19.6067L13.0457 18.5518Z" fill="#DD636E"/>
</svg>
