<svg width="26" height="26" viewBox="0 0 26 26" fill="none" xmlns="http://www.w3.org/2000/svg">
<path d="M23.3116 11.3232C23.1821 7.81041 20.0659 5 16.238 5C13.8022 5 11.6534 6.13845 10.3796 7.87217C9.7314 7.52021 8.97708 7.31782 8.17209 7.31782C5.91395 7.31782 4.05629 8.90198 3.82549 10.9348C1.63249 11.4118 0 13.2318 0 15.406C0 17.9434 2.22276 20 4.96502 20H21.035C23.7772 20 26 17.9434 26 15.406C26.0008 13.6277 24.9087 12.0867 23.3116 11.3232ZM20.9835 8.8432C20.9835 8.8432 18.037 7.15115 14.3128 6.69651C14.3128 6.69651 18.7326 5.65107 20.9835 8.8432ZM20.152 13.0369C20.1552 13.0904 20.1962 13.1358 20.2533 13.147L20.4536 13.1864C20.6289 13.2214 20.7535 13.3643 20.7535 13.5294V13.5644L20.5895 13.5741C20.8637 16.1442 21.3896 16.3823 21.3896 16.3823C20.9393 16.7104 19.3977 17.0132 19.3977 17.0132L19.5601 13.7504H19.3912V13.5845C19.3912 13.5413 19.4121 13.5012 19.4483 13.4744L19.7587 13.2452C19.7965 13.2169 19.8142 13.1715 19.8038 13.1269L19.7282 12.8092L18.4158 13.7943L17.9517 12.8099L18.2517 14.9492C18.2517 14.9492 10.2308 13.6046 6.75191 18.4895C6.75191 18.4895 6.83394 16.3123 7.22236 14.9492L6.68999 16.1605L3.33414 15.1947L11.9622 9.42656C11.9622 9.42656 17.3711 11.0673 22.0973 11.0293L20.1214 12.5123L20.152 13.0369Z" fill="#3756A2"/>
</svg>
